module golangJquerry

go 1.20

require (
	github.com/360EntSecGroup-Skylar/excelize v1.4.1 // indirect
	github.com/go-pdf/fpdf v0.8.0 // indirect
	github.com/golang/snappy v0.0.1 // indirect
	github.com/gorilla/mux v1.8.0 // indirect
	github.com/jung-kurt/gofpdf v1.16.2 // indirect
	github.com/klauspost/compress v1.13.6 // indirect
	github.com/mohae/deepcopy v0.0.0-20170929034955-c48cc78d4826 // indirect
	github.com/montanaflynn/stats v0.0.0-20171201202039-1bf9dbcd8cbe // indirect
	github.com/phpdave11/gofpdi v1.0.14-0.20211212211723-1f10f9844311 // indirect
	github.com/pkg/errors v0.9.1 // indirect
	github.com/signintech/gopdf v0.17.0 // indirect
	github.com/xdg-go/pbkdf2 v1.0.0 // indirect
	github.com/xdg-go/scram v1.1.1 // indirect
	github.com/xdg-go/stringprep v1.0.3 // indirect
	github.com/youmark/pkcs8 v0.0.0-20181117223130-1be2e3e5546d // indirect
	go.mongodb.org/mongo-driver v1.11.6 // indirect
	golang.org/x/crypto v0.0.0-20220622213112-05595931fe9d // indirect
	golang.org/x/sync v0.0.0-20210220032951-036812b2e83c // indirect
	golang.org/x/text v0.3.7 // indirect
)
